{
    "value": [
        "i",
        "t",
        "I",
        "s",
        "A",
        "V",
        "e",
        "r",
        "y",
        "U",
        "n",
        "i",
        "q",
        "u",
        "e",
        "N",
        "a",
        "m",
        "e",
        "T",
        "o",
        "E",
        "d",
        "i",
        "t"
    ],
    "text": "itIsAVeryUniqueNameToEdit"
}