{
    "sessionId": "a68a6ef20dea58fbf3771260ec61eb67",
    "status": 0,
    "value": [
        {
            "ELEMENT": "0.23712180594211274-1"
        },
        {
            "ELEMENT": "0.23712180594211274-2"
        },
        {
            "ELEMENT": "0.23712180594211274-3"
        },
        {
            "ELEMENT": "0.23712180594211274-4"
        },
        {
            "ELEMENT": "0.23712180594211274-5"
        },
        {
            "ELEMENT": "0.23712180594211274-6"
        },
        {
            "ELEMENT": "0.23712180594211274-7"
        }
    ]
}