{
    "value": [
        "s",
        "d",
        "j",
        "l",
        "j",
        "k",
        "s",
        "v",
        "j",
        "k",
        "l",
        "7",
        "8",
        "j",
        "h",
        "d"
    ],
    "text": "sdjljksvjkl78jhd"
}