{
    "sessionId": "a68a6ef20dea58fbf3771260ec61eb67",
    "status": 0,
    "value": [
        {
            "ELEMENT": "0.8691480793002351-1"
        },
        {
            "ELEMENT": "0.8691480793002351-2"
        },
        {
            "ELEMENT": "0.8691480793002351-3"
        }
    ]
}