{
    "value": [
        "E",
        "m",
        "p",
        "t",
        "y",
        " ",
        "D",
        "i",
        "s",
        "c",
        "o",
        "n",
        "t",
        "i",
        "n",
        "u",
        "e",
        "d"
    ],
    "text": "Empty Discontinued"
}