{
    "sessionId": "a68a6ef20dea58fbf3771260ec61eb67",
    "status": 0,
    "value": [
        {
            "ELEMENT": "0.7273866070746167-1"
        },
        {
            "ELEMENT": "0.7273866070746167-2"
        },
        {
            "ELEMENT": "0.7273866070746167-3"
        }
    ]
}