{
    "message": "no such element: Unable to locate element: {\"method\":\"css selector\",\"selector\":\"tbody tr a\"}",
    "type": "RuntimeError",
    "seleniumStack": {
        "type": "NoSuchElement",
        "message": "An element could not be located on the page using the given search parameters.",
        "orgStatusMessage": "no such element: Unable to locate element: {\"method\":\"css selector\",\"selector\":\"tbody tr a\"}\n  (Session info: chrome=69.0.3497.81)\n  (Driver info: chromedriver=2.40.565386 (45a059dc425e08165f9a10324bd1380cc13ca363),platform=Mac OS X 10.13.6 x86_64)"
    }
}