{
    "value": [
        "D",
        "a",
        "t",
        "e",
        "F",
        "o",
        "r",
        "m",
        "a",
        "t",
        " ",
        "M",
        "M",
        "-",
        "d",
        "d",
        "-",
        "y",
        "y",
        "y",
        "y"
    ],
    "text": "DateFormat MM-dd-yyyy"
}