{
    "value": [
        "S",
        "p",
        "a",
        "c",
        "e",
        " ",
        "D",
        "e",
        "l",
        "i",
        "m",
        "i",
        "t",
        "e",
        "r"
    ],
    "text": "Space Delimiter"
}