{
    "value": [
        "E",
        "m",
        "p",
        "t",
        "y",
        " ",
        "I",
        "n",
        "t",
        "r",
        "o",
        "d",
        "u",
        "c",
        "e",
        "d"
    ],
    "text": "Empty Introduced"
}