{
    "value": [
        "N",
        "e",
        "g",
        "a",
        "t",
        "i",
        "v",
        "e",
        " ",
        "Y",
        "e",
        "a",
        "r"
    ],
    "text": "Negative Year"
}