{
    "value": [
        "N",
        "o",
        "r",
        "m",
        "a",
        "l",
        " ",
        "D",
        "a",
        "t",
        "e",
        "s"
    ],
    "text": "Normal Dates"
}