{
    "value": [
        "W",
        "r",
        "o",
        "n",
        "g",
        " ",
        "D",
        "e",
        "l",
        "i",
        "m",
        "i",
        "t",
        "e",
        "r"
    ],
    "text": "Wrong Delimiter"
}