{
    "value": [
        "A",
        "b",
        "s",
        "o",
        "l",
        "u",
        "t",
        "e",
        "l",
        "y",
        "A",
        "n",
        "o",
        "t",
        "h",
        "e",
        "r",
        "N",
        "a",
        "m",
        "e"
    ],
    "text": "AbsolutelyAnotherName"
}