{
    "sessionId": "a68a6ef20dea58fbf3771260ec61eb67",
    "status": 0,
    "value": [
        {
            "ELEMENT": "0.5792006485457419-1"
        },
        {
            "ELEMENT": "0.5792006485457419-2"
        },
        {
            "ELEMENT": "0.5792006485457419-3"
        },
        {
            "ELEMENT": "0.5792006485457419-4"
        },
        {
            "ELEMENT": "0.5792006485457419-5"
        },
        {
            "ELEMENT": "0.5792006485457419-6"
        },
        {
            "ELEMENT": "0.5792006485457419-7"
        },
        {
            "ELEMENT": "0.5792006485457419-8"
        }
    ]
}