{
  "total" : 4,
  "items" : [ {
    "uid" : "6d409100115602349a2992cd545936a0",
    "name" : "Add new computer",
    "statistic" : {
      "failed" : 2,
      "broken" : 0,
      "skipped" : 0,
      "passed" : 21,
      "unknown" : 0,
      "total" : 23
    }
  }, {
    "uid" : "e96f9dc7ff6babc26f8da552bab8e8fb",
    "name" : "Computer update testing",
    "statistic" : {
      "failed" : 0,
      "broken" : 1,
      "skipped" : 0,
      "passed" : 4,
      "unknown" : 0,
      "total" : 5
    }
  }, {
    "uid" : "9345b46ead499b9f54cfaaaf9d0a4b78",
    "name" : "Test filtering scenarios",
    "statistic" : {
      "failed" : 0,
      "broken" : 0,
      "skipped" : 0,
      "passed" : 5,
      "unknown" : 0,
      "total" : 5
    }
  }, {
    "uid" : "ac99db33bc1151539d91e1ab1259e7cd",
    "name" : "Computer removal testing",
    "statistic" : {
      "failed" : 0,
      "broken" : 0,
      "skipped" : 0,
      "passed" : 2,
      "unknown" : 0,
      "total" : 2
    }
  } ]
}