{
  "uid" : "98d3104e051c652961429bf95fa0b5d6",
  "name" : "suites",
  "children" : [ {
    "name" : "Computer update testing",
    "children" : [ {
      "name" : "I can edit a computer name",
      "uid" : "d40eef245584f6c",
      "parentUid" : "e96f9dc7ff6babc26f8da552bab8e8fb",
      "status" : "passed",
      "time" : {
        "start" : 1536250129283,
        "stop" : 1536250136283,
        "duration" : 7000
      },
      "flaky" : false,
      "parameters" : [ "chrome" ]
    }, {
      "name" : "I can edit an introduced date",
      "uid" : "890e8f752d060159",
      "parentUid" : "e96f9dc7ff6babc26f8da552bab8e8fb",
      "status" : "passed",
      "time" : {
        "start" : 1536250136285,
        "stop" : 1536250139605,
        "duration" : 3320
      },
      "flaky" : false,
      "parameters" : [ "chrome" ]
    }, {
      "name" : "I can edit a discontinued date",
      "uid" : "d52113557c7ba626",
      "parentUid" : "e96f9dc7ff6babc26f8da552bab8e8fb",
      "status" : "broken",
      "time" : {
        "start" : 1536250139606,
        "stop" : 1536250143991,
        "duration" : 4385
      },
      "flaky" : false,
      "parameters" : [ "chrome" ]
    }, {
      "name" : "I can change a company",
      "uid" : "4beb83357332b42d",
      "parentUid" : "e96f9dc7ff6babc26f8da552bab8e8fb",
      "status" : "passed",
      "time" : {
        "start" : 1536250143991,
        "stop" : 1536250148676,
        "duration" : 4685
      },
      "flaky" : false,
      "parameters" : [ "chrome" ]
    }, {
      "name" : "I can cancel editing",
      "uid" : "99101ffadf91307e",
      "parentUid" : "e96f9dc7ff6babc26f8da552bab8e8fb",
      "status" : "passed",
      "time" : {
        "start" : 1536250148678,
        "stop" : 1536250156660,
        "duration" : 7982
      },
      "flaky" : false,
      "parameters" : [ "chrome" ]
    } ],
    "uid" : "e96f9dc7ff6babc26f8da552bab8e8fb"
  }, {
    "name" : "Computer removal testing",
    "children" : [ {
      "name" : "I can remove a computer",
      "uid" : "88be1804f146e785",
      "parentUid" : "ac99db33bc1151539d91e1ab1259e7cd",
      "status" : "passed",
      "time" : {
        "start" : 1536250129298,
        "stop" : 1536250134045,
        "duration" : 4747
      },
      "flaky" : false,
      "parameters" : [ "chrome" ]
    }, {
      "name" : "I can cancel the computer removal",
      "uid" : "3d088dcba4405f6",
      "parentUid" : "ac99db33bc1151539d91e1ab1259e7cd",
      "status" : "passed",
      "time" : {
        "start" : 1536250134051,
        "stop" : 1536250138794,
        "duration" : 4743
      },
      "flaky" : false,
      "parameters" : [ "chrome" ]
    } ],
    "uid" : "ac99db33bc1151539d91e1ab1259e7cd"
  }, {
    "name" : "Add new computer",
    "children" : [ {
      "name" : "I can add a computer with \"Empty Introduced Date\"",
      "uid" : "4c5d4f79ac768023",
      "parentUid" : "6d409100115602349a2992cd545936a0",
      "status" : "passed",
      "time" : {
        "start" : 1536250129326,
        "stop" : 1536250132965,
        "duration" : 3639
      },
      "flaky" : false,
      "parameters" : [ "chrome" ]
    }, {
      "name" : "I can add a computer with \"Empty Discontinued Date\"",
      "uid" : "20c0782803905e7f",
      "parentUid" : "6d409100115602349a2992cd545936a0",
      "status" : "passed",
      "time" : {
        "start" : 1536250132968,
        "stop" : 1536250135940,
        "duration" : 2972
      },
      "flaky" : false,
      "parameters" : [ "chrome" ]
    }, {
      "name" : "I can add a computer with \"Empty Company\"",
      "uid" : "1357e42ee0acb2c",
      "parentUid" : "6d409100115602349a2992cd545936a0",
      "status" : "passed",
      "time" : {
        "start" : 1536250135945,
        "stop" : 1536250138176,
        "duration" : 2231
      },
      "flaky" : false,
      "parameters" : [ "chrome" ]
    }, {
      "name" : "I can add a computer with \"Empty Dates\"",
      "uid" : "e7f93898e48789bf",
      "parentUid" : "6d409100115602349a2992cd545936a0",
      "status" : "passed",
      "time" : {
        "start" : 1536250138178,
        "stop" : 1536250140780,
        "duration" : 2602
      },
      "flaky" : false,
      "parameters" : [ "chrome" ]
    }, {
      "name" : "I can add a computer with \"Empty DiscontinuedDate And Company\"",
      "uid" : "c37fbde366505d6b",
      "parentUid" : "6d409100115602349a2992cd545936a0",
      "status" : "passed",
      "time" : {
        "start" : 1536250140782,
        "stop" : 1536250142696,
        "duration" : 1914
      },
      "flaky" : false,
      "parameters" : [ "chrome" ]
    }, {
      "name" : "I can add a computer with \"Empty IntroducedDate And Company\"",
      "uid" : "4fbf37c51caacdc6",
      "parentUid" : "6d409100115602349a2992cd545936a0",
      "status" : "passed",
      "time" : {
        "start" : 1536250142698,
        "stop" : 1536250144631,
        "duration" : 1933
      },
      "flaky" : false,
      "parameters" : [ "chrome" ]
    }, {
      "name" : "I can add a computer with \"Only Name\"",
      "uid" : "820b832ab4b61024",
      "parentUid" : "6d409100115602349a2992cd545936a0",
      "status" : "passed",
      "time" : {
        "start" : 1536250144633,
        "stop" : 1536250146423,
        "duration" : 1790
      },
      "flaky" : false,
      "parameters" : [ "chrome" ]
    }, {
      "name" : "I can't add a computer without a name",
      "uid" : "2d1e4282632391b6",
      "parentUid" : "6d409100115602349a2992cd545936a0",
      "status" : "passed",
      "time" : {
        "start" : 1536250146423,
        "stop" : 1536250147074,
        "duration" : 651
      },
      "flaky" : false,
      "parameters" : [ "chrome" ]
    }, {
      "name" : "I can add a new computer with \"Normal Dates\"",
      "uid" : "bb441d2822409991",
      "parentUid" : "6d409100115602349a2992cd545936a0",
      "status" : "passed",
      "time" : {
        "start" : 1536250147077,
        "stop" : 1536250149767,
        "duration" : 2690
      },
      "flaky" : false,
      "parameters" : [ "chrome" ]
    }, {
      "name" : "I can add a new computer with \"Zero Year\"",
      "uid" : "3c0a6e27985246e0",
      "parentUid" : "6d409100115602349a2992cd545936a0",
      "status" : "passed",
      "time" : {
        "start" : 1536250149768,
        "stop" : 1536250152721,
        "duration" : 2953
      },
      "flaky" : false,
      "parameters" : [ "chrome" ]
    }, {
      "name" : "I can add a new computer with \"Intro Text Month\"",
      "uid" : "23f207427c43438",
      "parentUid" : "6d409100115602349a2992cd545936a0",
      "status" : "passed",
      "time" : {
        "start" : 1536250156066,
        "stop" : 1536250157694,
        "duration" : 1628
      },
      "flaky" : false,
      "parameters" : [ "chrome" ]
    }, {
      "name" : "I can add a new computer with \"Disc Intro Text Month\"",
      "uid" : "a8ce2f00407f0e09",
      "parentUid" : "6d409100115602349a2992cd545936a0",
      "status" : "passed",
      "time" : {
        "start" : 1536250157696,
        "stop" : 1536250159555,
        "duration" : 1859
      },
      "flaky" : false,
      "parameters" : [ "chrome" ]
    }, {
      "name" : "I can add a new computer with \"Intro Negative Year\"",
      "uid" : "8ccb36ab7f5d65e3",
      "parentUid" : "6d409100115602349a2992cd545936a0",
      "status" : "failed",
      "time" : {
        "start" : 1536250159556,
        "stop" : 1536250161343,
        "duration" : 1787
      },
      "flaky" : false,
      "parameters" : [ "chrome" ]
    }, {
      "name" : "I can add a new computer with \"Disc Negative Year\"",
      "uid" : "40bf01a94f602dea",
      "parentUid" : "6d409100115602349a2992cd545936a0",
      "status" : "failed",
      "time" : {
        "start" : 1536250161345,
        "stop" : 1536250163277,
        "duration" : 1932
      },
      "flaky" : false,
      "parameters" : [ "chrome" ]
    }, {
      "name" : "I can add a new computer with \"Intro Wrong Delimiter\"",
      "uid" : "5e5af75a69bcf41c",
      "parentUid" : "6d409100115602349a2992cd545936a0",
      "status" : "passed",
      "time" : {
        "start" : 1536250163278,
        "stop" : 1536250164999,
        "duration" : 1721
      },
      "flaky" : false,
      "parameters" : [ "chrome" ]
    }, {
      "name" : "I can add a new computer with \"Disc Wrong Delimiter\"",
      "uid" : "8d3e9f44ace524",
      "parentUid" : "6d409100115602349a2992cd545936a0",
      "status" : "passed",
      "time" : {
        "start" : 1536250165000,
        "stop" : 1536250166744,
        "duration" : 1744
      },
      "flaky" : false,
      "parameters" : [ "chrome" ]
    }, {
      "name" : "I can add a new computer with \"Intro Text Date\"",
      "uid" : "2e26974136d99c74",
      "parentUid" : "6d409100115602349a2992cd545936a0",
      "status" : "passed",
      "time" : {
        "start" : 1536250168646,
        "stop" : 1536250170315,
        "duration" : 1669
      },
      "flaky" : false,
      "parameters" : [ "chrome" ]
    }, {
      "name" : "I can add a new computer with \"Intro DateFormat dd-MM-yyyy\"",
      "uid" : "571f4680b80f369a",
      "parentUid" : "6d409100115602349a2992cd545936a0",
      "status" : "passed",
      "time" : {
        "start" : 1536250170317,
        "stop" : 1536250172067,
        "duration" : 1750
      },
      "flaky" : false,
      "parameters" : [ "chrome" ]
    }, {
      "name" : "I can add a new computer with \"Disc DateFormat dd-MM-yyyy\"",
      "uid" : "d7ef49d7dae6bbcf",
      "parentUid" : "6d409100115602349a2992cd545936a0",
      "status" : "passed",
      "time" : {
        "start" : 1536250172068,
        "stop" : 1536250173804,
        "duration" : 1736
      },
      "flaky" : false,
      "parameters" : [ "chrome" ]
    }, {
      "name" : "I can add a new computer with \"Intro Space Delimiter\"",
      "uid" : "989ad9373205971",
      "parentUid" : "6d409100115602349a2992cd545936a0",
      "status" : "passed",
      "time" : {
        "start" : 1536250173805,
        "stop" : 1536250175339,
        "duration" : 1534
      },
      "flaky" : false,
      "parameters" : [ "chrome" ]
    }, {
      "name" : "I can add a new computer with \"Disc Space Delimiter\"",
      "uid" : "27b421e99ddbe02e",
      "parentUid" : "6d409100115602349a2992cd545936a0",
      "status" : "passed",
      "time" : {
        "start" : 1536250175341,
        "stop" : 1536250176924,
        "duration" : 1583
      },
      "flaky" : false,
      "parameters" : [ "chrome" ]
    }, {
      "name" : "I can add a new computer with \"Intro 30 Feb\"",
      "uid" : "64926d8bceb0ba42",
      "parentUid" : "6d409100115602349a2992cd545936a0",
      "status" : "passed",
      "time" : {
        "start" : 1536250176925,
        "stop" : 1536250178898,
        "duration" : 1973
      },
      "flaky" : false,
      "parameters" : [ "chrome" ]
    }, {
      "name" : "I can add a new computer with \"Disc 30 Feb\"",
      "uid" : "ee593a30909101b7",
      "parentUid" : "6d409100115602349a2992cd545936a0",
      "status" : "passed",
      "time" : {
        "start" : 1536250178899,
        "stop" : 1536250180409,
        "duration" : 1510
      },
      "flaky" : false,
      "parameters" : [ "chrome" ]
    } ],
    "uid" : "6d409100115602349a2992cd545936a0"
  }, {
    "name" : "Test filtering scenarios",
    "children" : [ {
      "name" : "Filtering by text (first boundry)",
      "uid" : "e80802b92b01528c",
      "parentUid" : "9345b46ead499b9f54cfaaaf9d0a4b78",
      "status" : "passed",
      "time" : {
        "start" : 1536250129338,
        "stop" : 1536250131616,
        "duration" : 2278
      },
      "flaky" : false,
      "parameters" : [ "chrome" ]
    }, {
      "name" : "Filtering by text (second boundry)",
      "uid" : "cc7004c728f20d92",
      "parentUid" : "9345b46ead499b9f54cfaaaf9d0a4b78",
      "status" : "passed",
      "time" : {
        "start" : 1536250131618,
        "stop" : 1536250132870,
        "duration" : 1252
      },
      "flaky" : false,
      "parameters" : [ "chrome" ]
    }, {
      "name" : "Filtering by number",
      "uid" : "a793c2a021619640",
      "parentUid" : "9345b46ead499b9f54cfaaaf9d0a4b78",
      "status" : "passed",
      "time" : {
        "start" : 1536250132872,
        "stop" : 1536250133580,
        "duration" : 708
      },
      "flaky" : false,
      "parameters" : [ "chrome" ]
    }, {
      "name" : "Filtering by symbol",
      "uid" : "941a5fa1ca6a820c",
      "parentUid" : "9345b46ead499b9f54cfaaaf9d0a4b78",
      "status" : "passed",
      "time" : {
        "start" : 1536250133581,
        "stop" : 1536250134374,
        "duration" : 793
      },
      "flaky" : false,
      "parameters" : [ "chrome" ]
    }, {
      "name" : "Filtering by not existing entry",
      "uid" : "30d1aae8f0344a50",
      "parentUid" : "9345b46ead499b9f54cfaaaf9d0a4b78",
      "status" : "passed",
      "time" : {
        "start" : 1536250134375,
        "stop" : 1536250135067,
        "duration" : 692
      },
      "flaky" : false,
      "parameters" : [ "chrome" ]
    } ],
    "uid" : "9345b46ead499b9f54cfaaaf9d0a4b78"
  } ]
}