launch_status failed=2 1536250274000000000
launch_status broken=1 1536250274000000000
launch_status passed=32 1536250274000000000
launch_status skipped=0 1536250274000000000
launch_status unknown=0 1536250274000000000
launch_time duration=51126 1536250274000000000
launch_time min_duration=651 1536250274000000000
launch_time max_duration=7982 1536250274000000000
launch_time sum_duration=88386 1536250274000000000
launch_problems product_defects=2 1536250274000000000
launch_problems test_defects=1 1536250274000000000
launch_retries retries=3 1536250274000000000
launch_retries run=35 1536250274000000000
