{
  "58383768f5e1a3f4db7a3c684ec991ed" : {
    "statistic" : {
      "failed" : 0,
      "broken" : 0,
      "skipped" : 0,
      "passed" : 1,
      "unknown" : 0,
      "total" : 1
    },
    "items" : [ {
      "uid" : "a8ce2f00407f0e09",
      "status" : "passed",
      "time" : {
        "start" : 1536250157696,
        "stop" : 1536250159555,
        "duration" : 1859
      }
    } ]
  },
  "a644b7a69c5a29d7fc6d15b2d9b070d1" : {
    "statistic" : {
      "failed" : 0,
      "broken" : 0,
      "skipped" : 0,
      "passed" : 1,
      "unknown" : 0,
      "total" : 1
    },
    "items" : [ {
      "uid" : "4fbf37c51caacdc6",
      "status" : "passed",
      "time" : {
        "start" : 1536250142698,
        "stop" : 1536250144631,
        "duration" : 1933
      }
    } ]
  },
  "4833508d88a5fefbbf9a2d75143ff6b4" : {
    "statistic" : {
      "failed" : 0,
      "broken" : 0,
      "skipped" : 0,
      "passed" : 1,
      "unknown" : 0,
      "total" : 1
    },
    "items" : [ {
      "uid" : "3d088dcba4405f6",
      "status" : "passed",
      "time" : {
        "start" : 1536250134051,
        "stop" : 1536250138794,
        "duration" : 4743
      }
    } ]
  },
  "930cf8d7572a59582ed23f893b8c7742" : {
    "statistic" : {
      "failed" : 0,
      "broken" : 0,
      "skipped" : 0,
      "passed" : 1,
      "unknown" : 0,
      "total" : 1
    },
    "items" : [ {
      "uid" : "571f4680b80f369a",
      "status" : "passed",
      "time" : {
        "start" : 1536250170317,
        "stop" : 1536250172067,
        "duration" : 1750
      }
    } ]
  },
  "22300f5397ae0691cfa2c1acd315eea7" : {
    "statistic" : {
      "failed" : 0,
      "broken" : 0,
      "skipped" : 0,
      "passed" : 1,
      "unknown" : 0,
      "total" : 1
    },
    "items" : [ {
      "uid" : "e7f93898e48789bf",
      "status" : "passed",
      "time" : {
        "start" : 1536250138178,
        "stop" : 1536250140780,
        "duration" : 2602
      }
    } ]
  },
  "ff91b88b68ef736261d76c937959ab11" : {
    "statistic" : {
      "failed" : 0,
      "broken" : 0,
      "skipped" : 0,
      "passed" : 1,
      "unknown" : 0,
      "total" : 1
    },
    "items" : [ {
      "uid" : "30d1aae8f0344a50",
      "status" : "passed",
      "time" : {
        "start" : 1536250134375,
        "stop" : 1536250135067,
        "duration" : 692
      }
    } ]
  },
  "1f2db581301bbe7446f3d609884063ac" : {
    "statistic" : {
      "failed" : 0,
      "broken" : 0,
      "skipped" : 0,
      "passed" : 1,
      "unknown" : 0,
      "total" : 1
    },
    "items" : [ {
      "uid" : "23f207427c43438",
      "status" : "passed",
      "time" : {
        "start" : 1536250156066,
        "stop" : 1536250157694,
        "duration" : 1628
      }
    } ]
  },
  "44426d73b136b93da489e4c2fc767d93" : {
    "statistic" : {
      "failed" : 0,
      "broken" : 0,
      "skipped" : 0,
      "passed" : 1,
      "unknown" : 0,
      "total" : 1
    },
    "items" : [ {
      "uid" : "cc7004c728f20d92",
      "status" : "passed",
      "time" : {
        "start" : 1536250131618,
        "stop" : 1536250132870,
        "duration" : 1252
      }
    } ]
  },
  "9291823b7fffa804920379e0e88e8cfe" : {
    "statistic" : {
      "failed" : 0,
      "broken" : 0,
      "skipped" : 0,
      "passed" : 1,
      "unknown" : 0,
      "total" : 1
    },
    "items" : [ {
      "uid" : "890e8f752d060159",
      "status" : "passed",
      "time" : {
        "start" : 1536250136285,
        "stop" : 1536250139605,
        "duration" : 3320
      }
    } ]
  },
  "6a0051d3efe0b4f3df616f5bc01113e3" : {
    "statistic" : {
      "failed" : 0,
      "broken" : 0,
      "skipped" : 0,
      "passed" : 1,
      "unknown" : 0,
      "total" : 1
    },
    "items" : [ {
      "uid" : "1357e42ee0acb2c",
      "status" : "passed",
      "time" : {
        "start" : 1536250135945,
        "stop" : 1536250138176,
        "duration" : 2231
      }
    } ]
  },
  "4c0c68a1cb3314226d5211192176bc71" : {
    "statistic" : {
      "failed" : 0,
      "broken" : 0,
      "skipped" : 0,
      "passed" : 1,
      "unknown" : 0,
      "total" : 1
    },
    "items" : [ {
      "uid" : "d7ef49d7dae6bbcf",
      "status" : "passed",
      "time" : {
        "start" : 1536250172068,
        "stop" : 1536250173804,
        "duration" : 1736
      }
    } ]
  },
  "71577c62a816132b7a422aab01923b36" : {
    "statistic" : {
      "failed" : 0,
      "broken" : 0,
      "skipped" : 0,
      "passed" : 1,
      "unknown" : 0,
      "total" : 1
    },
    "items" : [ {
      "uid" : "c37fbde366505d6b",
      "status" : "passed",
      "time" : {
        "start" : 1536250140782,
        "stop" : 1536250142696,
        "duration" : 1914
      }
    } ]
  },
  "1b54c2648e1b16bc777437f02c2fd431" : {
    "statistic" : {
      "failed" : 0,
      "broken" : 0,
      "skipped" : 0,
      "passed" : 1,
      "unknown" : 0,
      "total" : 1
    },
    "items" : [ {
      "uid" : "20c0782803905e7f",
      "status" : "passed",
      "time" : {
        "start" : 1536250132968,
        "stop" : 1536250135940,
        "duration" : 2972
      }
    } ]
  },
  "1eb507899e68285dcb0d938f7ba35b8" : {
    "statistic" : {
      "failed" : 0,
      "broken" : 0,
      "skipped" : 0,
      "passed" : 1,
      "unknown" : 0,
      "total" : 1
    },
    "items" : [ {
      "uid" : "d40eef245584f6c",
      "status" : "passed",
      "time" : {
        "start" : 1536250129283,
        "stop" : 1536250136283,
        "duration" : 7000
      }
    } ]
  },
  "645f45a3b0ebb6fe50690fc77476ab67" : {
    "statistic" : {
      "failed" : 0,
      "broken" : 0,
      "skipped" : 0,
      "passed" : 1,
      "unknown" : 0,
      "total" : 1
    },
    "items" : [ {
      "uid" : "5e5af75a69bcf41c",
      "status" : "passed",
      "time" : {
        "start" : 1536250163278,
        "stop" : 1536250164999,
        "duration" : 1721
      }
    } ]
  },
  "57072f0e9869a1e0d9133df0e5db397b" : {
    "statistic" : {
      "failed" : 0,
      "broken" : 0,
      "skipped" : 0,
      "passed" : 1,
      "unknown" : 0,
      "total" : 1
    },
    "items" : [ {
      "uid" : "820b832ab4b61024",
      "status" : "passed",
      "time" : {
        "start" : 1536250144633,
        "stop" : 1536250146423,
        "duration" : 1790
      }
    } ]
  },
  "2fad327228bb06c06ca409d130f1d79c" : {
    "statistic" : {
      "failed" : 0,
      "broken" : 0,
      "skipped" : 0,
      "passed" : 1,
      "unknown" : 0,
      "total" : 1
    },
    "items" : [ {
      "uid" : "989ad9373205971",
      "status" : "passed",
      "time" : {
        "start" : 1536250173805,
        "stop" : 1536250175339,
        "duration" : 1534
      }
    } ]
  },
  "ccb4f7e07e3fe3510466397686538b02" : {
    "statistic" : {
      "failed" : 0,
      "broken" : 0,
      "skipped" : 0,
      "passed" : 1,
      "unknown" : 0,
      "total" : 1
    },
    "items" : [ {
      "uid" : "27b421e99ddbe02e",
      "status" : "passed",
      "time" : {
        "start" : 1536250175341,
        "stop" : 1536250176924,
        "duration" : 1583
      }
    } ]
  },
  "cf42ece5e0be5ec1026770725069422f" : {
    "statistic" : {
      "failed" : 0,
      "broken" : 0,
      "skipped" : 0,
      "passed" : 1,
      "unknown" : 0,
      "total" : 1
    },
    "items" : [ {
      "uid" : "a793c2a021619640",
      "status" : "passed",
      "time" : {
        "start" : 1536250132872,
        "stop" : 1536250133580,
        "duration" : 708
      }
    } ]
  },
  "b0872b103740888ef723810df3e529e7" : {
    "statistic" : {
      "failed" : 0,
      "broken" : 0,
      "skipped" : 0,
      "passed" : 1,
      "unknown" : 0,
      "total" : 1
    },
    "items" : [ {
      "uid" : "2d1e4282632391b6",
      "status" : "passed",
      "time" : {
        "start" : 1536250146423,
        "stop" : 1536250147074,
        "duration" : 651
      }
    } ]
  },
  "fdd9bedb915454399ba14b19f55ac60a" : {
    "statistic" : {
      "failed" : 0,
      "broken" : 0,
      "skipped" : 0,
      "passed" : 1,
      "unknown" : 0,
      "total" : 1
    },
    "items" : [ {
      "uid" : "941a5fa1ca6a820c",
      "status" : "passed",
      "time" : {
        "start" : 1536250133581,
        "stop" : 1536250134374,
        "duration" : 793
      }
    } ]
  },
  "e429dc2577558eee00c11506a4fea22d" : {
    "statistic" : {
      "failed" : 0,
      "broken" : 0,
      "skipped" : 0,
      "passed" : 1,
      "unknown" : 0,
      "total" : 1
    },
    "items" : [ {
      "uid" : "64926d8bceb0ba42",
      "status" : "passed",
      "time" : {
        "start" : 1536250176925,
        "stop" : 1536250178898,
        "duration" : 1973
      }
    } ]
  },
  "6d1e8407562843e76445cec5cd8b9da1" : {
    "statistic" : {
      "failed" : 0,
      "broken" : 0,
      "skipped" : 0,
      "passed" : 1,
      "unknown" : 0,
      "total" : 1
    },
    "items" : [ {
      "uid" : "4beb83357332b42d",
      "status" : "passed",
      "time" : {
        "start" : 1536250143991,
        "stop" : 1536250148676,
        "duration" : 4685
      }
    } ]
  },
  "c3a07cb883d21d889270c67255177639" : {
    "statistic" : {
      "failed" : 0,
      "broken" : 0,
      "skipped" : 0,
      "passed" : 1,
      "unknown" : 0,
      "total" : 1
    },
    "items" : [ {
      "uid" : "4c5d4f79ac768023",
      "status" : "passed",
      "time" : {
        "start" : 1536250129326,
        "stop" : 1536250132965,
        "duration" : 3639
      }
    } ]
  },
  "d7e1df8f88cccb0fee1be2adb336b0c1" : {
    "statistic" : {
      "failed" : 0,
      "broken" : 0,
      "skipped" : 0,
      "passed" : 1,
      "unknown" : 0,
      "total" : 1
    },
    "items" : [ {
      "uid" : "ee593a30909101b7",
      "status" : "passed",
      "time" : {
        "start" : 1536250178899,
        "stop" : 1536250180409,
        "duration" : 1510
      }
    } ]
  },
  "f16c0211fe138b2f77469372788388d" : {
    "statistic" : {
      "failed" : 0,
      "broken" : 1,
      "skipped" : 0,
      "passed" : 0,
      "unknown" : 0,
      "total" : 1
    },
    "items" : [ {
      "uid" : "d52113557c7ba626",
      "status" : "broken",
      "statusDetails" : "java.io.IOException: Error writing to server",
      "time" : {
        "start" : 1536250139606,
        "stop" : 1536250143991,
        "duration" : 4385
      }
    } ]
  },
  "73e5468809882d713ab9222244ab2dd1" : {
    "statistic" : {
      "failed" : 1,
      "broken" : 0,
      "skipped" : 0,
      "passed" : 0,
      "unknown" : 0,
      "total" : 1
    },
    "items" : [ {
      "uid" : "8ccb36ab7f5d65e3",
      "status" : "failed",
      "statusDetails" : "expected true to equal false",
      "time" : {
        "start" : 1536250159556,
        "stop" : 1536250161343,
        "duration" : 1787
      }
    } ]
  },
  "9990ee22c9dc0541870077ccc7489ec5" : {
    "statistic" : {
      "failed" : 1,
      "broken" : 0,
      "skipped" : 0,
      "passed" : 0,
      "unknown" : 0,
      "total" : 1
    },
    "items" : [ {
      "uid" : "40bf01a94f602dea",
      "status" : "failed",
      "statusDetails" : "expected true to equal false",
      "time" : {
        "start" : 1536250161345,
        "stop" : 1536250163277,
        "duration" : 1932
      }
    } ]
  },
  "5851a956b5f16d71108217deb53528fa" : {
    "statistic" : {
      "failed" : 0,
      "broken" : 0,
      "skipped" : 0,
      "passed" : 1,
      "unknown" : 0,
      "total" : 1
    },
    "items" : [ {
      "uid" : "88be1804f146e785",
      "status" : "passed",
      "time" : {
        "start" : 1536250129298,
        "stop" : 1536250134045,
        "duration" : 4747
      }
    } ]
  },
  "192cc482173db227c08b18101467c93b" : {
    "statistic" : {
      "failed" : 0,
      "broken" : 0,
      "skipped" : 0,
      "passed" : 1,
      "unknown" : 0,
      "total" : 1
    },
    "items" : [ {
      "uid" : "8d3e9f44ace524",
      "status" : "passed",
      "time" : {
        "start" : 1536250165000,
        "stop" : 1536250166744,
        "duration" : 1744
      }
    } ]
  },
  "569a481f92ebc10cdfa07997c3820114" : {
    "statistic" : {
      "failed" : 0,
      "broken" : 0,
      "skipped" : 0,
      "passed" : 1,
      "unknown" : 0,
      "total" : 1
    },
    "items" : [ {
      "uid" : "e80802b92b01528c",
      "status" : "passed",
      "time" : {
        "start" : 1536250129338,
        "stop" : 1536250131616,
        "duration" : 2278
      }
    } ]
  },
  "5e10b69755728e90684a965097e0d22b" : {
    "statistic" : {
      "failed" : 0,
      "broken" : 0,
      "skipped" : 0,
      "passed" : 1,
      "unknown" : 0,
      "total" : 1
    },
    "items" : [ {
      "uid" : "2e26974136d99c74",
      "status" : "passed",
      "time" : {
        "start" : 1536250168646,
        "stop" : 1536250170315,
        "duration" : 1669
      }
    } ]
  },
  "f4bad34636da6fee153b57d9d8bce9e7" : {
    "statistic" : {
      "failed" : 0,
      "broken" : 0,
      "skipped" : 0,
      "passed" : 1,
      "unknown" : 0,
      "total" : 1
    },
    "items" : [ {
      "uid" : "99101ffadf91307e",
      "status" : "passed",
      "time" : {
        "start" : 1536250148678,
        "stop" : 1536250156660,
        "duration" : 7982
      }
    } ]
  },
  "28141d50f8f4c445009d25ba4dade63d" : {
    "statistic" : {
      "failed" : 0,
      "broken" : 0,
      "skipped" : 0,
      "passed" : 1,
      "unknown" : 0,
      "total" : 1
    },
    "items" : [ {
      "uid" : "bb441d2822409991",
      "status" : "passed",
      "time" : {
        "start" : 1536250147077,
        "stop" : 1536250149767,
        "duration" : 2690
      }
    } ]
  },
  "1c9f491abad67a16a2f9d73a4f194bcd" : {
    "statistic" : {
      "failed" : 0,
      "broken" : 0,
      "skipped" : 0,
      "passed" : 1,
      "unknown" : 0,
      "total" : 1
    },
    "items" : [ {
      "uid" : "3c0a6e27985246e0",
      "status" : "passed",
      "time" : {
        "start" : 1536250149768,
        "stop" : 1536250152721,
        "duration" : 2953
      }
    } ]
  }
}